Rを用いた藻類データの 解析セミナー
…
.footnote[
<sup>1</sup>変数は列; <sup>2</sup>観測値は行
]

---

## `tibble` は機能的なデータフレーム

```r
as_tibble(iris) # tidyverse tibble
```

```
## # A tibble: 150 x 5
##    Sepal.Length Sepal.Width Petal.Length Petal.Width Species
##           <dbl>       <dbl>        <dbl>       <dbl> <fct>  
##  1          5.1         3.5          1.4         0.2 setosa 
##  2          4.9         3            1.4         0.2 setosa 
##  3          4.7         3.2          1.3         0.2 setosa 
##  4          4.6         3.1          1.5         0.2 setosa 
##  5          5           3.6          1.4         0.2 setosa 
##  6          5.4         3.9          1.7         0.4 setosa 
##  7          4.6         3.4          1.4         0.3 setosa 
##  8          5           3.4          1.5         0.2 setosa 
##  9          4.4         2.9          1.4         0.2 setosa 
## 10          4.9         3.1          1.5         0.1 setosa 
## # … with 140 more rows
```
…
---

## `filter()` 

`filter()` を使って、`Sepal.Length <= 5` のデータを抽出します。

```r
iris %>% as_tibble() %>% filter(Sepal.Length <= 5)
```

```
## # A tibble: 32 x 5
##    Sepal.Length Sepal.Width Petal.Length Petal.Width Species
##           <dbl>       <dbl>        <dbl>       <dbl> <fct>  
##  1          4.9         3            1.4         0.2 setosa 
##  2          4.7         3.2          1.3         0.2 setosa 
##  3          4.6         3.1          1.5         0.2 setosa 
##  4          5           3.6          1.4         0.2 setosa 
##  5          4.6         3.4          1.4         0.3 setosa 
##  6          5           3.4          1.5         0.2 setosa 
##  7          4.4         2.9          1.4         0.2 setosa 
##  8          4.9         3.1          1.5         0.1 setosa 
##  9          4.8         3.4          1.6         0.2 setosa 
## 10          4.8         3            1.4         0.1 setosa 
## # … with 22 more rows
```

---

## `mutate()`

`mutate()` を使って、`Sepal.Length` と `Sepal.Width` の比 (`Ratio`) を求めます。

```r
iris %>% as_tibble() %>% mutate(Ratio = Sepal.Length / Sepal.Width)
```

```
## # A tibble: 150 x 6
##    Sepal.Length Sepal.Width Petal.Length Petal.Width Species Ratio
##           <dbl>       <dbl>        <dbl>       <dbl> <fct>   <dbl>
##  1          5.1         3.5          1.4         0.2 setosa   1.46
##  2          4.9         3            1.4         0.2 setosa   1.63
##  3          4.7         3.2          1.3         0.2 setosa   1.47
##  4          4.6         3.1          1.5         0.2 setosa   1.48
##  5          5           3.6          1.4         0.2 setosa   1.39
##  6          5.4         3.9          1.7         0.4 setosa   1.38
##  7          4.6         3.4          1.4         0.3 setosa   1.35
##  8          5           3.4          1.5         0.2 setosa   1.47
##  9          4.4         2.9          1.4         0.2 setosa   1.52
## 10          4.9         3.1          1.5         0.1 setosa   1.58
## # … with 140 more rows
```
…
.content-box-green[

縦長の表 (long-format table) <svg viewBox="0 0 512 512" style="height:1em;fill:currentColor;position:relative;display:inline-block;top:.1em;" xmlns="http://www.w3.org/2000/svg">  <path d="M377.941 169.941V216H134.059v-46.059c0-21.382-25.851-32.09-40.971-16.971L7.029 239.029c-9.373 9.373-9.373 24.568 0 33.941l86.059 86.059c15.119 15.119 40.971 4.411 40.971-16.971V296h243.882v46.059c0 21.382 25.851 32.09 40.971 16.971l86.059-86.059c9.373-9.373 9.373-24.568 0-33.941l-86.059-86.059c-15.119-15.12-40.971-4.412-40.971 16.97z"></path></svg> 横広の表 (wide-format table) への変換は pivoting といいます。

`pivot_longer` をつかって `iris` を横広から縦長へ変換します。
]

```r
iris %>% pivot_longer(cols = matches("^Sep|^Pet")) 
```

.pull-left[

```
## # A tibble: 600 x 3
##    Species name         value
##    <fct>   <chr>        <dbl>
##  1 setosa  Sepal.Length   5.1
##  2 setosa  Sepal.Width    3.5
##  3 setosa  Petal.Length   1.4
##  4 setosa  Petal.Width    0.2
##  5 setosa  Sepal.Length   4.9
##  6 setosa  Sepal.Width    3  
##  7 setosa  Petal.Length   1.4
##  8 setosa  Petal.Width    0.2
##  9 setosa  Sepal.Length   4.7
## 10 setosa  Sepal.Width    3.2
## # … with 590 more rows
```
…
Warning は次のように解決できます。

```r
InsectSprays %>% 
  pivot_wider(names_from = spray, 
              values_from = count,
              values_fn = list) %>% 
  unnest(everything())
```

.pull-left[

```
## # A tibble: 12 x 6
##       A     B     C     D     E     F
##   <dbl> <dbl> <dbl> <dbl> <dbl> <dbl>
## 1    10    11     0     3     3    11
## 2     7    17     1     5     5     9
## 3    20    21     7    12     3    15
## 4    14    11     2     6     5    22
## 5    14    16     3     4     3    15
## 6    12    14     1     3     6    16
## # … with 6 more rows
```
…
